1,0.5,0.6,0.2,0.7,0.2,1.2,0.1,1,0.1,1,0.4,1.2,0.2,1,0.2,1,0.1,1,0.1,0.9,0.5,1.1,0.5,1.1,0.5,1,0.2,1,0.2,1.4,0.2,1,0.2,1,0.3,1.4,0.3,1.4,0.2,1.5,0.5,1,0.2,1,0.3,1.5,0.2,2,0.2
1.7,3,1.2,1.3,1,1.3,2.5,1.5,2,1.5,2.5,3,5,5,4,4,1.5,2,2,2,2,2,3.5,3.5,3.5,3.5,1.2,2.5,2,2.5,3.5,2,1.2,1,1.5,1,3,2.5,3.5,2.5,3,3,1.1,1,1.3,1,4,2.5,4,2.5
1,0.5,1,1,1,1,1.2,2,1.2,2,2,0.8,2,1.5,2.5,2,1.2,2,1.2,2,2,0.8,2.5,2,2.5,1.5,1.2,1.5,1.2,1.5,1.2,1.5,1.4,1.5,1.5,1.5,1.5,1.5,1,1.5,1.5,1.5,1.4,1.5,1.5,1.5,1,1.5,0.8,1.5
